^C:\USERS\BIANJ\ONEDRIVE\DESKTOP\UTASKER-KINETIS-MASTER\FREERTOS\SOURCE\CROUTINE.C
/c /I..\..\..\FREERTOS\SOURCE\INCLUDE /I..\..\..\FREERTOS\SOURCE\PORTABLE\GCC\ARM_CM4F /I.\..\. /I.\..\..\..\WINSIM\WPDPACK_3_1\WPDPACK\INCLUDE /I. /ZI /nologo /W3 /WX- /diagnostics:column /Od /Oy- /D WIN32 /D _WINDOWS /D _KINETIS /D ETHEREAL /D _VC80_UPGRADE=0x0600 /D _MBCS /Gm /EHsc /RTC1 /MTd /GS /fp:precise /Zc:wchar_t /Zc:forScope /Zc:inline /Fo".\UTASKER___WIN32_UTASKER_KINETIS_PLUS_GCC_BUILD/" /Fd".\UTASKER___WIN32_UTASKER_KINETIS_PLUS_GCC_BUILD/VC142.PDB" /FR".\uTasker___Win32_uTasker_Kinetis_plus_GCC_build\\" /Gd /TC /analyze- /FC C:\USERS\BIANJ\ONEDRIVE\DESKTOP\UTASKER-KINETIS-MASTER\FREERTOS\SOURCE\CROUTINE.C
^C:\USERS\BIANJ\ONEDRIVE\DESKTOP\UTASKER-KINETIS-MASTER\FREERTOS\SOURCE\EVENT_GROUPS.C
/c /I..\..\..\FREERTOS\SOURCE\INCLUDE /I..\..\..\FREERTOS\SOURCE\PORTABLE\GCC\ARM_CM4F /I.\..\. /I.\..\..\..\WINSIM\WPDPACK_3_1\WPDPACK\INCLUDE /I. /ZI /nologo /W3 /WX- /diagnostics:column /Od /Oy- /D WIN32 /D _WINDOWS /D _KINETIS /D ETHEREAL /D _VC80_UPGRADE=0x0600 /D _MBCS /Gm /EHsc /RTC1 /MTd /GS /fp:precise /Zc:wchar_t /Zc:forScope /Zc:inline /Fo".\UTASKER___WIN32_UTASKER_KINETIS_PLUS_GCC_BUILD/" /Fd".\UTASKER___WIN32_UTASKER_KINETIS_PLUS_GCC_BUILD/VC142.PDB" /FR".\uTasker___Win32_uTasker_Kinetis_plus_GCC_build\\" /Gd /TC /analyze- /FC C:\USERS\BIANJ\ONEDRIVE\DESKTOP\UTASKER-KINETIS-MASTER\FREERTOS\SOURCE\EVENT_GROUPS.C
^C:\USERS\BIANJ\ONEDRIVE\DESKTOP\UTASKER-KINETIS-MASTER\FREERTOS\SOURCE\LIST.C
/c /I..\..\..\FREERTOS\SOURCE\INCLUDE /I..\..\..\FREERTOS\SOURCE\PORTABLE\GCC\ARM_CM4F /I.\..\. /I.\..\..\..\WINSIM\WPDPACK_3_1\WPDPACK\INCLUDE /I. /ZI /nologo /W3 /WX- /diagnostics:column /Od /Oy- /D WIN32 /D _WINDOWS /D _KINETIS /D ETHEREAL /D _VC80_UPGRADE=0x0600 /D _MBCS /Gm /EHsc /RTC1 /MTd /GS /fp:precise /Zc:wchar_t /Zc:forScope /Zc:inline /Fo".\UTASKER___WIN32_UTASKER_KINETIS_PLUS_GCC_BUILD/" /Fd".\UTASKER___WIN32_UTASKER_KINETIS_PLUS_GCC_BUILD/VC142.PDB" /FR".\uTasker___Win32_uTasker_Kinetis_plus_GCC_build\\" /Gd /TC /analyze- /FC C:\USERS\BIANJ\ONEDRIVE\DESKTOP\UTASKER-KINETIS-MASTER\FREERTOS\SOURCE\LIST.C
^C:\USERS\BIANJ\ONEDRIVE\DESKTOP\UTASKER-KINETIS-MASTER\FREERTOS\SOURCE\PORTABLE\GCC\ARM_CM4F\PORT.C
/c /I..\..\..\FREERTOS\SOURCE\INCLUDE /I..\..\..\FREERTOS\SOURCE\PORTABLE\GCC\ARM_CM4F /I.\..\. /I.\..\..\..\WINSIM\WPDPACK_3_1\WPDPACK\INCLUDE /I. /ZI /nologo /W3 /WX- /diagnostics:column /Od /Oy- /D WIN32 /D _WINDOWS /D _KINETIS /D ETHEREAL /D _VC80_UPGRADE=0x0600 /D _MBCS /Gm /EHsc /RTC1 /MTd /GS /fp:precise /Zc:wchar_t /Zc:forScope /Zc:inline /Fo".\UTASKER___WIN32_UTASKER_KINETIS_PLUS_GCC_BUILD/" /Fd".\UTASKER___WIN32_UTASKER_KINETIS_PLUS_GCC_BUILD/VC142.PDB" /FR".\uTasker___Win32_uTasker_Kinetis_plus_GCC_build\\" /Gd /TC /analyze- /FC C:\USERS\BIANJ\ONEDRIVE\DESKTOP\UTASKER-KINETIS-MASTER\FREERTOS\SOURCE\PORTABLE\GCC\ARM_CM4F\PORT.C
^C:\USERS\BIANJ\ONEDRIVE\DESKTOP\UTASKER-KINETIS-MASTER\FREERTOS\SOURCE\QUEUE.C
/c /I..\..\..\FREERTOS\SOURCE\INCLUDE /I..\..\..\FREERTOS\SOURCE\PORTABLE\GCC\ARM_CM4F /I.\..\. /I.\..\..\..\WINSIM\WPDPACK_3_1\WPDPACK\INCLUDE /I. /ZI /nologo /W3 /WX- /diagnostics:column /Od /Oy- /D WIN32 /D _WINDOWS /D _KINETIS /D ETHEREAL /D _VC80_UPGRADE=0x0600 /D _MBCS /Gm /EHsc /RTC1 /MTd /GS /fp:precise /Zc:wchar_t /Zc:forScope /Zc:inline /Fo".\UTASKER___WIN32_UTASKER_KINETIS_PLUS_GCC_BUILD/" /Fd".\UTASKER___WIN32_UTASKER_KINETIS_PLUS_GCC_BUILD/VC142.PDB" /FR".\uTasker___Win32_uTasker_Kinetis_plus_GCC_build\\" /Gd /TC /analyze- /FC C:\USERS\BIANJ\ONEDRIVE\DESKTOP\UTASKER-KINETIS-MASTER\FREERTOS\SOURCE\QUEUE.C
^C:\USERS\BIANJ\ONEDRIVE\DESKTOP\UTASKER-KINETIS-MASTER\FREERTOS\SOURCE\TASKS.C
/c /I..\..\..\FREERTOS\SOURCE\INCLUDE /I..\..\..\FREERTOS\SOURCE\PORTABLE\GCC\ARM_CM4F /I.\..\. /I.\..\..\..\WINSIM\WPDPACK_3_1\WPDPACK\INCLUDE /I. /ZI /nologo /W3 /WX- /diagnostics:column /Od /Oy- /D WIN32 /D _WINDOWS /D _KINETIS /D ETHEREAL /D _VC80_UPGRADE=0x0600 /D _MBCS /Gm /EHsc /RTC1 /MTd /GS /fp:precise /Zc:wchar_t /Zc:forScope /Zc:inline /Fo".\UTASKER___WIN32_UTASKER_KINETIS_PLUS_GCC_BUILD/" /Fd".\UTASKER___WIN32_UTASKER_KINETIS_PLUS_GCC_BUILD/VC142.PDB" /FR".\uTasker___Win32_uTasker_Kinetis_plus_GCC_build\\" /Gd /TC /analyze- /FC C:\USERS\BIANJ\ONEDRIVE\DESKTOP\UTASKER-KINETIS-MASTER\FREERTOS\SOURCE\TASKS.C
^C:\USERS\BIANJ\ONEDRIVE\DESKTOP\UTASKER-KINETIS-MASTER\FREERTOS\SOURCE\TIMERS.C
/c /I..\..\..\FREERTOS\SOURCE\INCLUDE /I..\..\..\FREERTOS\SOURCE\PORTABLE\GCC\ARM_CM4F /I.\..\. /I.\..\..\..\WINSIM\WPDPACK_3_1\WPDPACK\INCLUDE /I. /ZI /nologo /W3 /WX- /diagnostics:column /Od /Oy- /D WIN32 /D _WINDOWS /D _KINETIS /D ETHEREAL /D _VC80_UPGRADE=0x0600 /D _MBCS /Gm /EHsc /RTC1 /MTd /GS /fp:precise /Zc:wchar_t /Zc:forScope /Zc:inline /Fo".\UTASKER___WIN32_UTASKER_KINETIS_PLUS_GCC_BUILD/" /Fd".\UTASKER___WIN32_UTASKER_KINETIS_PLUS_GCC_BUILD/VC142.PDB" /FR".\uTasker___Win32_uTasker_Kinetis_plus_GCC_build\\" /Gd /TC /analyze- /FC C:\USERS\BIANJ\ONEDRIVE\DESKTOP\UTASKER-KINETIS-MASTER\FREERTOS\SOURCE\TIMERS.C
^C:\USERS\BIANJ\ONEDRIVE\DESKTOP\UTASKER-KINETIS-MASTER\APPLICATIONS\UTASKERV1.4\FREERTOSAPPLICATION.C
/c /I..\..\..\FREERTOS\SOURCE\INCLUDE /I..\..\..\FREERTOS\SOURCE\PORTABLE\GCC\ARM_CM4F /I.\..\. /I.\..\..\..\WINSIM\WPDPACK_3_1\WPDPACK\INCLUDE /I. /ZI /nologo /W3 /WX- /diagnostics:column /Od /Oy- /D WIN32 /D _WINDOWS /D _KINETIS /D ETHEREAL /D _VC80_UPGRADE=0x0600 /D _MBCS /Gm /EHsc /RTC1 /MTd /GS /fp:precise /Zc:wchar_t /Zc:forScope /Zc:inline /Fo".\UTASKER___WIN32_UTASKER_KINETIS_PLUS_GCC_BUILD/" /Fd".\UTASKER___WIN32_UTASKER_KINETIS_PLUS_GCC_BUILD/VC142.PDB" /FR".\uTasker___Win32_uTasker_Kinetis_plus_GCC_build\\" /Gd /TC /analyze- /FC C:\USERS\BIANJ\ONEDRIVE\DESKTOP\UTASKER-KINETIS-MASTER\APPLICATIONS\UTASKERV1.4\FREERTOSAPPLICATION.C
